{
    "KPlugin": {
        "Authors": [
            {
                "Email": "sebas@kde.org",
                "Name": "Sebastian Kügler",
                "Name[ar]": "Sebastian Kügler",
                "Name[az]": "Sebastian Kügler",
                "Name[ca]": "Sebastian Kügler",
                "Name[cs]": "Sebastian Kügler",
                "Name[de]": "Sebastian Kügler",
                "Name[en_GB]": "Sebastian Kügler",
                "Name[es]": "Sebastian Kügler",
                "Name[fi]": "Sebastian Kügler",
                "Name[fr]": "Sebastian Kügler",
                "Name[hu]": "Sebastian Kügler",
                "Name[ia]": "Sebastian Kügler",
                "Name[it]": "Sebastian Kügler",
                "Name[lt]": "Sebastian Kügler",
                "Name[nl]": "Sebastian Kügler",
                "Name[nn]": "Sebastian Kügler",
                "Name[pa]": "Sebastian Kügler",
                "Name[pl]": "Sebastian Kügler",
                "Name[pt_BR]": "Sebastian Kügler",
                "Name[ru]": "Sebastian Kügler",
                "Name[sk]": "Sebastian Kügler",
                "Name[sl]": "Sebastian Kügler",
                "Name[sv]": "Sebastian Kügler",
                "Name[uk]": "Sebastian Kügler",
                "Name[vi]": "Sebastian Kügler",
                "Name[x-test]": "xxSebastian Küglerxx",
                "Name[zh_CN]": "Sebastian Kügler"
            }
        ],
        "Category": "Multimedia",
        "Description": "Media Player Controls",
        "Description[ar]": "تحكّمات مشغّل الوسائط",
        "Description[az]": "Media Pleyer İdarəsi",
        "Description[ca]": "Controls del reproductor multimèdia",
        "Description[cs]": "Ovládání přehrávače médií",
        "Description[de]": "Steuerung der Medienwiedergabe",
        "Description[en_GB]": "Media Player Controls",
        "Description[es]": "Controles del reproductor multimedia",
        "Description[fi]": "Mediasoittimen säätimet",
        "Description[fr]": "Contrôles du lecteur multimédia",
        "Description[hu]": "Médialejátszó vezérlők",
        "Description[ia]": "Controlos de Reproductor de Multimedia",
        "Description[it]": "Controlli del lettore multimediale",
        "Description[lt]": "Medijos leistuvės valdikliai",
        "Description[nl]": "Besturing van mediaspeler",
        "Description[nn]": "Mediespelar­kontrollar",
        "Description[pa]": "ਮੀਡਿਆ ਪਲੇਅਰ ਕੰਟਰੋਲ",
        "Description[pl]": "Obsługa odtwarzacza multimedialnego",
        "Description[pt_BR]": "Controles do reprodutor de mídia",
        "Description[ru]": "Управление мультимедийным проигрывателем",
        "Description[sk]": "Ovládanie prehrávača médií",
        "Description[sl]": "Nadzor predstavnostnega predvajalnika",
        "Description[sv]": "Kontroller för mediaspelare",
        "Description[ta]": "ஊடக இயக்கி கட்டுப்பாடு",
        "Description[uk]": "Керування мультимедійним програвачем",
        "Description[vi]": "Các điều khiển của trình phát phương tiện",
        "Description[x-test]": "xxMedia Player Controlsxx",
        "Description[zh_CN]": "媒体播放器控件",
        "EnabledByDefault": true,
        "FormFactors": [
            "tablet",
            "handset",
            "desktop"
        ],
        "Icon": "applications-multimedia",
        "Id": "org.kde.plasma.mediacontroller",
        "License": "GPL-2.0+",
        "Name": "Media Player",
        "Name[ar]": "مشغّل وسائط",
        "Name[az]": "Mediya Pleyer",
        "Name[bs]": "Izvođač medija",
        "Name[ca@valencia]": "Reproductor multimèdia",
        "Name[ca]": "Reproductor multimèdia",
        "Name[cs]": "Přehrávač médií",
        "Name[da]": "Medieafspiller",
        "Name[de]": "Medienwiedergabe",
        "Name[el]": "Αναπαραγωγέας πολυμέσων",
        "Name[en_GB]": "Media Player",
        "Name[es]": "Reproductor multimedia",
        "Name[et]": "Meediamängija",
        "Name[eu]": "Euskarri jotzailea",
        "Name[fi]": "Mediasoitin",
        "Name[fr]": "Lecteur multimédia",
        "Name[gl]": "Reprodutor multimedia",
        "Name[he]": "נגן מדיה",
        "Name[hi]": "मीडिया-प्लेयर",
        "Name[hsb]": "Medijowy wothrawak",
        "Name[hu]": "Médialejátszó",
        "Name[ia]": "Media Player (Reproductor de Media)",
        "Name[id]": "Pemutar Media",
        "Name[is]": "Margmiðlunarspilari",
        "Name[it]": "Lettore multimediale",
        "Name[ja]": "メディアプレーヤー",
        "Name[ko]": "미디어 재생기",
        "Name[lt]": "Medijos leistuvė",
        "Name[ml]": "മീഡിയ പ്ലെയര്‍",
        "Name[nb]": "Mediespiller",
        "Name[nds]": "Medienafspeler",
        "Name[nl]": "Mediaspeler",
        "Name[nn]": "Mediespelar",
        "Name[pa]": "ਮੀਡਿਆ ਪਲੇਅਰ",
        "Name[pl]": "Odtwarzacz multimedialny",
        "Name[pt]": "Reprodutor Multimédia",
        "Name[pt_BR]": "Reprodutor de mídia",
        "Name[ro]": "Redare multimedia",
        "Name[ru]": "Проигрыватель",
        "Name[sk]": "Prehrávač médií",
        "Name[sl]": "Predstavnostni predvajalnik",
        "Name[sr@ijekavian]": "медија плејер",
        "Name[sr@ijekavianlatin]": "medija plejer",
        "Name[sr@latin]": "medija plejer",
        "Name[sr]": "медија плејер",
        "Name[sv]": "Mediaspelare",
        "Name[ta]": "ஊடக இயக்கி",
        "Name[tg]": "Плеери медиа",
        "Name[tr]": "Ortam Yürütücüsü",
        "Name[uk]": "Програвач",
        "Name[vi]": "Trình phát phương tiện",
        "Name[x-test]": "xxMedia Playerxx",
        "Name[zh_CN]": "媒体播放器",
        "Name[zh_TW]": "媒體播放器",
        "ServiceTypes": [
            "Plasma/Applet"
        ],
        "Version": "1.0",
        "Website": "https://www.kde.org/plasma-desktop"
    },
    "X-Plasma-API": "declarativeappletscript",
    "X-Plasma-DBusActivationService": "org.mpris.MediaPlayer2.*",
    "X-Plasma-MainScript": "ui/main.qml",
    "X-Plasma-NotificationArea": "true",
    "X-Plasma-NotificationAreaCategory": "ApplicationStatus",
    "X-Plasma-Provides": [
        "org.kde.plasma.multimediacontrols"
    ],
    "X-Plasma-StandAloneApp": true
}
