{
    "KPlugin": {
        "Description": "Automatically releases drives when their eject button is pushed",
        "Description[ar]": "أطلِق الأجهزة آليًا عندما يُضغَط زر الإخراج",
        "Description[az]": "Çıxart düyməsinə vurduqda daşıyıcıları avtomatik ayırır",
        "Description[ca]": "Allibera unitats automàticament quan es prem el seu botó d'expulsió",
        "Description[cs]": "Umožňuje automaticky uvolnit mechaniku při stisknutí tlačítka vysunutí",
        "Description[de]": "Löst die Laufwerkseinbindung automatisch bei Betätigung des Auswurfknopfes",
        "Description[en_GB]": "Automatically releases drives when their eject button is pushed",
        "Description[es]": "Libera automáticamente las unidades cuando se pulsa el botón de expulsión",
        "Description[fr]": "Libère automatiquement les disques lors d'un appui sur leur bouton d'éjection",
        "Description[hu]": "Automatikusan kiadja a meghajtókat a kiadógomb megnyomásakor",
        "Description[ia]": "Il lassa fora automaticamente le drives quando lor button de expeller es pressate.",
        "Description[it]": "Rilascia automaticamente le unità quando viene premuto il loro pulsante di espulsione",
        "Description[lt]": "Automatiškai atjungia diskus, kai paspaudžiamas jų išstūmimo mygtukas",
        "Description[nl]": "Geeft automatisch apparaten vrij als hun uitwerpknop wordt ingedrukt",
        "Description[nn]": "Løyser automatisk ut stasjonar når det vert trykt på utløysingsknappen deira",
        "Description[pa]": "ਜਦੋਂ ਬਾਹਰ ਕੱਢੋ ਬਟਨ ਦੱਬਿਆ ਜਾਵੇ ਤਾਂ ਆਟੋਮੈਟਿਕ ਹੀ ਡਰਾਇਵਾਂ ਨੂੰ ਛੱਡ ਦਿਓ",
        "Description[pl]": "Samoczynnie wysuwa napędy po naciśnięciu właściwego przycisku",
        "Description[pt_BR]": "Libera as unidades automaticamente quando o botão de ejeção for pressionado",
        "Description[ru]": "Выбрасывает сменный носитель из привода при нажатии кнопки извлечения",
        "Description[sk]": "Umožňuje automaticky uvoľniť mechaniku pri stlačení tlačidla vysunúť",
        "Description[sl]": "Samodejno odklopi pogon, ko pritisnjen gumb za izmet",
        "Description[sv]": "Frisläpper automatiskt enheter vid tryck på deras utmatningsknapp",
        "Description[ta]": "வட்டுகளின் வெளியேற்ற பட்டன் அழுத்தப்படும்போது அவற்றை வெளியேற்றும் நிரல்",
        "Description[uk]": "Автоматичне вилучення файли пристроїв, після натискання на них кнопки виштовхування",
        "Description[vi]": "Tự động xuất các ổ ra khi nút rút của chúng được ấn",
        "Description[x-test]": "xxAutomatically releases drives when their eject button is pushedxx",
        "Description[zh_CN]": "当按下弹出按钮时自动释放驱动器",
        "Name": "Drive Ejector",
        "Name[ar]": "مُخرِج الأجهزة",
        "Name[az]": "Daşıyıcıların Çıxarılması",
        "Name[bg]": "Изваждане на устройства",
        "Name[bs]": "Izbacivač jedinica",
        "Name[ca@valencia]": "Expulsor d'unitats",
        "Name[ca]": "Expulsor d'unitats",
        "Name[cs]": "Vysunutí mechaniky",
        "Name[da]": "Udskubning af drev",
        "Name[de]": "Laufwerksauswurf",
        "Name[el]": "Οδηγός Εξαγωγέα",
        "Name[en_GB]": "Drive Ejector",
        "Name[eo]": "Elĵetilo de diskingoj",
        "Name[es]": "Eyector de unidad",
        "Name[et]": "Plaadiväljasti",
        "Name[eu]": "Unitate-egozlea",
        "Name[fi]": "Aseman poistaja",
        "Name[fr]": "Éjecteur de disque",
        "Name[ga]": "Díchurthóir Tiomántáin",
        "Name[gl]": "Expulsor de unidades",
        "Name[gu]": "ડ્રાઇવ બહાર કાઢનાર",
        "Name[he]": "מוציא הכוננים",
        "Name[hi]": "ड्राइव इजेक्टर",
        "Name[hr]": "Izbacivač pogona",
        "Name[hsb]": "Wućisnjenje diskow a podobnych gratow",
        "Name[hu]": "Meghajtókiadó",
        "Name[ia]": "Ejector de Drive",
        "Name[id]": "Pengeluar Drive",
        "Name[is]": "Diskaútspýting",
        "Name[it]": "Espulsore di unità",
        "Name[ja]": "ドライブイジェクタ",
        "Name[kk]": "Тасушысын алып-шығу",
        "Name[km]": "កម្មវិធីច្រាន​ដ្រាយ​ចេញ",
        "Name[kn]": "ಡ್ರೈವ್ ಹೊರತಳ್ಳುಕ",
        "Name[ko]": "장치 꺼내기",
        "Name[lt]": "Diskų išstūmimo įrankis",
        "Name[lv]": "Disku izgrūdējs",
        "Name[ml]": "ഡ്രൈവ് പുറത്തെടുക്കുവാന്‍",
        "Name[mr]": "ड्राइव्ह बाहेर काढा",
        "Name[nb]": "Drevutløser",
        "Name[nds]": "Schuuvlaad rutfohren",
        "Name[nl]": "Uitwerpen uit apparaat",
        "Name[nn]": "Stasjonsutløysing",
        "Name[pa]": "ਡਰਾਇਵਰ ਇੰਜੈਂਕਟਰ",
        "Name[pl]": "Wysuwanie napędów",
        "Name[pt]": "Ejecção de Unidades",
        "Name[pt_BR]": "Ejeção de unidades",
        "Name[ro]": "Ejector unitate",
        "Name[ru]": "Извлечение дисков",
        "Name[si]": "ධාවකය ඉවත් කරනය",
        "Name[sk]": "Vysunutie mechaniky",
        "Name[sl]": "Izmetalo pogona",
        "Name[sr@ijekavian]": "Избацивач јединица",
        "Name[sr@ijekavianlatin]": "Izbacivač jedinica",
        "Name[sr@latin]": "Izbacivač jedinica",
        "Name[sr]": "Избацивач јединица",
        "Name[sv]": "Utmatning av enheter",
        "Name[ta]": "வட்டு வெளியேற்ற நிரல்",
        "Name[th]": "ตัวดันถาดไดรฟ์",
        "Name[tr]": "Sürücü Çıkarıcı",
        "Name[ug]": "قوزغاتقۇچ قاڭقىتقۇچ",
        "Name[uk]": "Вилучення дисків",
        "Name[vi]": "Trình rút ổ",
        "Name[wa]": "Rexheu d' plake",
        "Name[x-test]": "xxDrive Ejectorxx",
        "Name[zh_CN]": "驱动器弹出程序",
        "Name[zh_TW]": "碟片跳出管理"
    },
    "X-KDE-Kded-autoload": true
}
