{
    "KPlugin": {
        "Authors": [
            {
                "Email": "mart@kde.org",
                "Name": "Marco Martin",
                "Name[ar]": "Marco Martin",
                "Name[az]": "Marco Martin",
                "Name[ca]": "Marco Martin",
                "Name[cs]": "Marco Martin",
                "Name[de]": "Marco Martin",
                "Name[en_GB]": "Marco Martin",
                "Name[es]": "Marco Martin",
                "Name[fi]": "Marco Martin",
                "Name[fr]": "Marco Martin",
                "Name[hu]": "Marco Martin",
                "Name[ia]": "Marco Martin",
                "Name[it]": "Marco Martin",
                "Name[lt]": "Marco Martin",
                "Name[nl]": "Marco Martin",
                "Name[nn]": "Marco Martin",
                "Name[pa]": "ਮਾਰਕੋ ਮਾਰਟਿਨ",
                "Name[pl]": "Marco Martin",
                "Name[pt_BR]": "Marco Martin",
                "Name[ru]": "Marco Martin",
                "Name[sk]": "Marco Martin",
                "Name[sl]": "Marco Martin",
                "Name[sv]": "Marco Martin",
                "Name[uk]": "Marco Martin",
                "Name[vi]": "Marco Martin",
                "Name[x-test]": "xxMarco Martinxx",
                "Name[zh_CN]": "Marco Martin"
            }
        ],
        "Category": "Date and Time",
        "Description": "A clock with hands",
        "Description[ar]": "ساعة بِعقارب",
        "Description[az]": "Əqrəbli saat",
        "Description[ca]": "Un rellotge amb manetes",
        "Description[cs]": "Ručičkové hodiny",
        "Description[de]": "Eine Uhr mit Zeigern",
        "Description[en_GB]": "A clock with hands",
        "Description[es]": "Un reloj con manecillas",
        "Description[fi]": "Viisarikello",
        "Description[fr]": "Une horloge avec des mains",
        "Description[hu]": "Óra mutatókkal",
        "Description[ia]": "Un horologio con manos",
        "Description[it]": "Un orologio con lancette",
        "Description[lt]": "Laikrodis su rodyklėmis",
        "Description[nl]": "Een klok met wijzers",
        "Description[nn]": "Ei klokke med visarar",
        "Description[pa]": "ਸੂਈਆਂ ਵਾਲੀ ਘੜੀ",
        "Description[pl]": "Zegar ze wskazówkami",
        "Description[pt_BR]": "Um relógio com ponteiros",
        "Description[ru]": "Часы со стрелками",
        "Description[sk]": "Ručičkové hodiny",
        "Description[sl]": "Ura s kazalci",
        "Description[sv]": "En klocka med visare",
        "Description[ta]": "முட்களை கொண்ட கடிகாரம்",
        "Description[uk]": "Годинник зі стрілками",
        "Description[vi]": "Một đồng hồ với các kim",
        "Description[x-test]": "xxA clock with handsxx",
        "Description[zh_CN]": "带指针的时钟",
        "EnabledByDefault": true,
        "FormFactors": [
            "tablet",
            "handset",
            "desktop"
        ],
        "Icon": "preferences-system-time",
        "Id": "org.kde.plasma.analogclock",
        "License": "GPL-2.0+",
        "Name": "Analog Clock",
        "Name[af]": "Analooghorlosie",
        "Name[ar]": "ساعة تناظرية",
        "Name[ast]": "Reló analóxicu",
        "Name[az]": "Əqrəbli saat",
        "Name[be@latin]": "Analahavy hadzińnik",
        "Name[be]": "Аналагавы гадзіннік",
        "Name[bg]": "Аналогов часовник",
        "Name[bn]": "অ্যানালগ ঘড়ি",
        "Name[bs]": "Analogni sat",
        "Name[ca@valencia]": "Rellotge analògic",
        "Name[ca]": "Rellotge analògic",
        "Name[cs]": "Analogové hodiny",
        "Name[csb]": "Analogòwi zédżer",
        "Name[da]": "Analogt ur",
        "Name[de]": "Analoge Uhr",
        "Name[el]": "Αναλογικό ρολόι",
        "Name[en_GB]": "Analogue Clock",
        "Name[eo]": "Analoga horloĝo",
        "Name[es]": "Reloj analógico",
        "Name[et]": "Analoogkell",
        "Name[eu]": "Erloju analogikoa",
        "Name[fa]": "ساعت قیاسی",
        "Name[fi]": "Analoginen kello",
        "Name[fr]": "Horloge analogique",
        "Name[fy]": "Analoge klok",
        "Name[ga]": "Clog Analógach",
        "Name[gl]": "Reloxo analóxico",
        "Name[gu]": "સાદી ઘડિયાળ",
        "Name[he]": "שעון מחוגים",
        "Name[hi]": "एनॉलॉग घड़ी",
        "Name[hne]": "एनालाग घड़ी",
        "Name[hr]": "Analogni sat",
        "Name[hsb]": "Analogny časnik",
        "Name[hu]": "Mutatós óra",
        "Name[ia]": "Horologio analogic",
        "Name[id]": "Jam Analog",
        "Name[is]": "Skífuklukka",
        "Name[it]": "Orologio analogico",
        "Name[ja]": "アナログ時計",
        "Name[kk]": "Аналогты сағат",
        "Name[km]": "នាឡិកា​អាណាឡូក",
        "Name[kn]": "ಅವಿಚ್ಛಿನ್ನಾತ್ಮಕ (ಅನಲಾಗ್, ಸಾಂಪ್ರದಾಯಿಕ) ಗಡಿಯಾರ",
        "Name[ko]": "아날로그 시계",
        "Name[ku]": "Demjimêra Analog",
        "Name[lt]": "Analoginis laikrodis",
        "Name[lv]": "Rādītāju pulkstenis",
        "Name[mai]": "एनालाग घडी",
        "Name[mk]": "Аналоген часовник",
        "Name[ml]": "അനലോഗ് ഘടികാരം",
        "Name[mr]": "एनॉलॉग घड्याळ",
        "Name[nb]": "Analog klokke",
        "Name[nds]": "Analoog Klock",
        "Name[ne]": "एनालग घडी",
        "Name[nl]": "Analoge klok",
        "Name[nn]": "Analog klokke",
        "Name[oc]": "Relòtge analogic",
        "Name[pa]": "ਐਨਾਲਾਗ ਘੜੀ",
        "Name[pl]": "Zegar analogowy",
        "Name[pt]": "Relógio Analógico",
        "Name[pt_BR]": "Relógio Analógico",
        "Name[ro]": "Ceas analog",
        "Name[ru]": "Часы с циферблатом",
        "Name[se]": "Analogalaš diibmu",
        "Name[si]": "ප්‍රතිසම ඔරලෝසුව",
        "Name[sk]": "Analógové hodiny",
        "Name[sl]": "Analogna ura",
        "Name[sr@ijekavian]": "аналогни сат",
        "Name[sr@ijekavianlatin]": "analogni sat",
        "Name[sr@latin]": "analogni sat",
        "Name[sr]": "аналогни сат",
        "Name[sv]": "Analog klocka",
        "Name[ta]": "சுழல் கடிகாரம்",
        "Name[te]": "ఎనలాగ్ గడియారం",
        "Name[tg]": "Соати аналогӣ",
        "Name[th]": "นาฬิกาแอนะล็อก",
        "Name[tr]": "Analog Saat",
        "Name[ug]": "ئانالوگ سائەت",
        "Name[uk]": "Аналоговий годинник",
        "Name[uz@cyrillic]": "Аналог соат",
        "Name[uz]": "Analog soat",
        "Name[vi]": "Đồng hồ kim",
        "Name[wa]": "Ôrlodje analodjike",
        "Name[x-test]": "xxAnalog Clockxx",
        "Name[zh_CN]": "模拟时钟",
        "Name[zh_TW]": "類比時鐘",
        "ServiceTypes": [
            "Plasma/Applet"
        ],
        "Version": "3.0",
        "Website": "https://userbase.kde.org/Plasma/Clocks"
    },
    "X-Plasma-API": "declarativeappletscript",
    "X-Plasma-MainScript": "ui/analogclock.qml",
    "X-Plasma-Provides": [
        "org.kde.plasma.time",
        "org.kde.plasma.date"
    ],
    "X-Plasma-StandAloneApp": true
}
